EP5/polilegsc_tb.vcd
$date
  Sun Dec  1 00:42:54 2019
$end
$version
  GHDL v0
$end
$timescale
  1 fs
$end
$scope module standard $end
$upscope $end
$scope module numeric_bit $end
$upscope $end
$scope module math_real $end
$upscope $end
$scope module textio $end
$upscope $end
$scope module polilegsc_tb $end
$var reg 32 ! s_e0dd0220d9e85b6865c6164a2c4e0758f575e5046b1e245bd63dd473fb7c4e3e[31:0] $end
$var reg 64 " s_02d34a2e28[63:0] $end
$var reg 64 # s_4c1472ea7af2457487fba8ac7a834[63:0] $end
$var reg 64 $ s_3f36967452701b06a8bc370bb[63:0] $end
$var reg 64 % s_80010bc47a8cecc646c4374ae777f98b366a33afc8[63:0] $end
$var reg 1 & s_6ed1b868a39c9717fb69bb2b6d230ffe60565 $end
$var reg 1 ' s_b035336b56ddbc3bfca3d4b633a06256e0dcf14af03c73db615eb7 $end
$var reg 1 ( s_42bdc213876b745bf234f1d68b $end
$var reg 1 ) s_82979d1d66e9db7f5a8658b25afa568247cd135b98 $end
$scope module s_4d191361e9c49e5200eb700a2f837 $end
$var reg 4 * s_7e733d18f2a5f6a9b8de36457ca04d05045796ef8[3:0] $end
$var reg 32 + s_87988181add8796c930415949a06f396460f7623c17[31:0] $end
$upscope $end
$scope module s_5898c51e66e3ad908eca0564729959d7 $end
$var reg 1 , s_42bdc213876b745bf234f1d68b $end
$var reg 1 - s_4d8acf7fdbfaf9e65b38a9f2c0105 $end
$var reg 2 . s_7e733d18f2a5f6a9b8de36457ca04d05045796ef8[1:0] $end
$var reg 64 / s_5041af0616d39483df4729d1ef76fd[63:0] $end
$var reg 64 0 s_5c4a42d966770723929589420911d1ac1[63:0] $end
$comment s_f09f01b5d89378d28419e3c9acc13c02d82c15c829d5df18cd9d046132af36bd is not handled $end
$upscope $end
$scope module s_6c302f22aa5f79ee2f7dc07465d324c2264bf $end
$upscope $end
$upscope $end
$enddefinitions $end
#0
b11111000010000000000001111100001 !
b0000000000000000000000000000000000000000000000000000000000000000 "
b0000000000000000000000000000000000000000000000000000000000000000 #
b0000000000000000000000000000000000000000000000000000000000000000 $
b1000000000000000000000000000000000000000000000000000000000000000 %
0&
0'
0(
1)
b0000 *
b11111000010000000000001111100001 +
0,
0-
b00 .
b0000000000000000000000000000000000000000000000000000000000000000 /
b1000000000000000000000000000000000000000000000000000000000000000 0
#500000
1(
1,
#1000000
0(
0)
0,
#1500000
1(
1,
#2000000
0(
0,
#2500000
1(
1,
#3000000
0(
0,
#3500000
1(
1,
#4000000
0(
0,
#4500000
1(
1,
#5000000
0(
0,
#5500000
1(
1,
#6000000
0(
0,
#6500000
1(
1,
#7000000
0(
0,
#7500000
1(
1,
#8000000
0(
0,
#8500000
1(
1,
#9000000
0(
0,
#9500000
1(
1,
#10000000
0(
0,
#10500000
1(
1,
#11000000
0(
0,
#11500000
1(
1,
#12000000
0(
0,
#12500000
1(
1,
#13000000
0(
0,
#13500000
1(
1,
#14000000
0(
0,
#14500000
1(
1,
#15000000
0(
0,
#15500000
1(
1,
#16000000
0(
0,
#16500000
1(
1,
#17000000
0(
0,
#17500000
1(
1,
#18000000
0(
0,
#18500000
1(
1,
#19000000
0(
0,
#19500000
1(
1,
#20000000
0(
0,
#20500000
1(
1,
#21000000
0(
0,
#21500000
1(
1,
#22000000
0(
0,
#22500000
1(
1,
#23000000
0(
0,
#23500000
1(
1,
#24000000
0(
0,
#24500000
1(
1,
#25000000
0(
0,
#25500000
1(
1,
#26000000
0(
0,
#26500000
1(
1,
#27000000
0(
0,
#27500000
1(
1,
#28000000
0(
0,
#28500000
1(
1,
#29000000
0(
0,
#29500000
1(
1,
#30000000
0(
0,
#30500000
1(
1,
#31000000
0(
0,
#31500000
1(
1,
#32000000
0(
0,
#32500000
1(
1,
#33000000
0(
0,
#33500000
1(
1,
#34000000
0(
0,
#34500000
1(
1,
#35000000
0(
0,
#35500000
1(
1,
#36000000
0(
0,
#36500000
1(
1,
#37000000
0(
0,
#37500000
1(
1,
#38000000
0(
0,
#38500000
1(
1,
#39000000
0(
0,
#39500000
1(
1,
#40000000
0(
0,
#40500000
1(
1,
#41000000
0(
0,
#41500000
1(
1,
#42000000
0(
0,
#42500000
1(
1,
#43000000
0(
0,
#43500000
1(
1,
#44000000
0(
0,
#44500000
1(
1,
#45000000
0(
0,
#45500000
1(
1,
#46000000
0(
0,
#46500000
1(
1,
#47000000
0(
0,
#47500000
1(
1,
#48000000
0(
0,
#48500000
1(
1,
#49000000
0(
0,
#49500000
1(
1,
#50000000
0(
0,
#50500000
1(
1,
#51000000
0(
0,
#51500000
1(
1,
#52000000
0(
0,
#52500000
1(
1,
#53000000
0(
0,
#53500000
1(
1,
#54000000
0(
0,
#54500000
1(
1,
#55000000
0(
0,
#55500000
1(
1,
#56000000
0(
0,
#56500000
1(
1,
#57000000
0(
0,
#57500000
1(
1,
#58000000
0(
0,
#58500000
1(
1,
#59000000
0(
0,
#59500000
1(
1,
#60000000
0(
0,
#60500000
1(
1,
#61000000
0(
0,
#61500000
1(
1,
#62000000
0(
0,
#62500000
1(
1,
#63000000
0(
0,
#63500000
1(
1,
#64000000
0(
0,
#64500000
1(
1,
#65000000
0(
0,
#65500000
1(
1,
#66000000
0(
0,
#66500000
1(
1,
#67000000
0(
0,
#67500000
1(
1,
#68000000
0(
0,
#68500000
1(
1,
#69000000
0(
0,
#69500000
1(
1,
#70000000
0(
0,
#70500000
1(
1,
#71000000
0(
0,
#71500000
1(
1,
#72000000
0(
0,
#72500000
1(
1,
#73000000
0(
0,
#73500000
1(
1,
#74000000
0(
0,
#74500000
1(
1,
#75000000
0(
0,
#75500000
1(
1,
#76000000
0(
0,
#76500000
1(
1,
#77000000
0(
0,
#77500000
1(
1,
#78000000
0(
0,
#78500000
1(
1,
#79000000
0(
0,
#79500000
1(
1,
#80000000
0(
0,
#80500000
1(
1,
#81000000
0(
0,
#81500000
1(
1,
#82000000
0(
0,
#82500000
1(
1,
#83000000
0(
0,
#83500000
1(
1,
#84000000
0(
0,
#84500000
1(
1,
#85000000
0(
0,
#85500000
1(
1,
#86000000
0(
0,
#86500000
1(
1,
#87000000
0(
0,
#87500000
1(
1,
#88000000
0(
0,
#88500000
1(
1,
#89000000
0(
0,
#89500000
1(
1,
#90000000
0(
0,
#90500000
1(
1,
#91000000
0(
0,
#91500000
1(
1,
#92000000
0(
0,
#92500000
1(
1,
#93000000
0(
0,
#93500000
1(
1,
#94000000
0(
0,
#94500000
1(
1,
#95000000
0(
0,
#95500000
1(
1,
#96000000
0(
0,
#96500000
1(
1,
#97000000
0(
0,
#97500000
1(
1,
#98000000
0(
0,
#98500000
1(
1,
#99000000
0(
0,
#99500000
1(
1,
#100000000
0(
0,
#100500000
1(
1,
#101000000
0(
0,
#101500000
1(
1,
#102000000
0(
0,
#102500000
1(
1,
#103000000
0(
0,
#103500000
1(
1,
#104000000
0(
0,
#104500000
1(
1,
#105000000
0(
0,
#105500000
1(
1,
#106000000
0(
0,
#106500000
1(
1,
#107000000
0(
0,
#107500000
1(
1,
#108000000
0(
0,
#108500000
1(
1,
#109000000
0(
0,
#109500000
1(
1,
#110000000
0(
0,
#110500000
1(
1,
#111000000
0(
0,
#111500000
1(
1,
#112000000
0(
0,
#112500000
1(
1,
#113000000
0(
0,
#113500000
1(
1,
#114000000
0(
0,
#114500000
1(
1,
#115000000
0(
0,
#115500000
1(
1,
#116000000
0(
0,
#116500000
1(
1,
#117000000
0(
0,
#117500000
1(
1,
#118000000
0(
0,
#118500000
1(
1,
#119000000
0(
0,
#119500000
1(
1,
#120000000
0(
0,
#120500000
1(
1,
#121000000
0(
0,
#121500000
1(
1,
#122000000
0(
0,
#122500000
1(
1,
#123000000
0(
0,
#123500000
1(
1,
#124000000
0(
0,
#124500000
1(
1,
#125000000
0(
0,
#125500000
1(
1,
#126000000
0(
0,
#126500000
1(
1,
#127000000
0(
0,
#127500000
1(
1,
#128000000
0(
0,
#128500000
1(
1,
#129000000
0(
0,
#129500000
1(
1,
#130000000
0(
0,
#130500000
1(
1,
#131000000
0(
0,
#131500000
1(
1,
#132000000
0(
0,
#132500000
1(
1,
#133000000
0(
0,
#133500000
1(
1,
#134000000
0(
0,
#134500000
1(
1,
#135000000
0(
0,
#135500000
1(
1,
#136000000
0(
0,
#136500000
1(
1,
#137000000
0(
0,
#137500000
1(
1,
#138000000
0(
0,
#138500000
1(
1,
#139000000
0(
0,
#139500000
1(
1,
#140000000
0(
0,
#140500000
1(
1,
#141000000
0(
0,
#141500000
1(
1,
#142000000
0(
0,
#142500000
1(
1,
#143000000
0(
0,
#143500000
1(
1,
#144000000
0(
0,
#144500000
1(
1,
#145000000
0(
0,
#145500000
1(
1,
#146000000
0(
0,
#146500000
1(
1,
#147000000
0(
0,
#147500000
1(
1,
#148000000
0(
0,
#148500000
1(
1,
#149000000
0(
0,
#149500000
1(
1,
#150000000
0(
0,
#150500000
1(
1,
#151000000
0(
0,
#151500000
1(
1,
#152000000
0(
0,
#152500000
1(
1,
#153000000
0(
0,
#153500000
1(
1,
#154000000
0(
0,
#154500000
1(
1,
#155000000
0(
0,
#155500000
1(
1,
#156000000
0(
0,
#156500000
1(
1,
#157000000
0(
0,
#157500000
1(
1,
#158000000
0(
0,
#158500000
1(
1,
#159000000
0(
0,
#159500000
1(
1,
#160000000
0(
0,
#160500000
1(
1,
#161000000
0(
0,
#161500000
1(
1,
#162000000
0(
0,
#162500000
1(
1,
#163000000
0(
0,
#163500000
1(
1,
#164000000
0(
0,
#164500000
1(
1,
#165000000
0(
0,
#165500000
1(
1,
#166000000
0(
0,
#166500000
1(
1,
#167000000
0(
0,
#167500000
1(
1,
#168000000
0(
0,
#168500000
1(
1,
#169000000
0(
0,
#169500000
1(
1,
#170000000
0(
0,
#170500000
1(
1,
#171000000
0(
0,
#171500000
1(
1,
#172000000
0(
0,
#172500000
1(
1,
#173000000
0(
0,
#173500000
1(
1,
#174000000
0(
0,
#174500000
1(
1,
#175000000
0(
0,
#175500000
1(
1,
#176000000
0(
0,
#176500000
1(
1,
#177000000
0(
0,
#177500000
1(
1,
#178000000
0(
0,
#178500000
1(
1,
#179000000
0(
0,
#179500000
1(
1,
#180000000
0(
0,
#180500000
1(
1,
#181000000
0(
0,
#181500000
1(
1,
#182000000
0(
0,
#182500000
1(
1,
#183000000
0(
0,
#183500000
1(
1,
#184000000
0(
0,
#184500000
1(
1,
#185000000
0(
0,
#185500000
1(
1,
#186000000
0(
0,
#186500000
1(
1,
#187000000
0(
0,
#187500000
1(
1,
#188000000
0(
0,
#188500000
1(
1,
#189000000
0(
0,
#189500000
1(
1,
#190000000
0(
0,
#190500000
1(
1,
#191000000
0(
0,
#191500000
1(
1,
#192000000
0(
0,
#192500000
1(
1,
#193000000
0(
0,
#193500000
1(
1,
#194000000
0(
0,
#194500000
1(
1,
#195000000
0(
0,
#195500000
1(
1,
#196000000
0(
0,
#196500000
1(
1,
#197000000
0(
0,
#197500000
1(
1,
#198000000
0(
0,
#198500000
1(
1,
#199000000
0(
0,
#199500000
1(
1,
#200000000
0(
0,
#200500000
1(
1,
#201000000
0(
0,
#201500000
1(
1,
#202000000
0(
0,
#202500000
1(
1,
#203000000
0(
0,
#203500000
1(
1,
#204000000
0(
0,
#204500000
1(
1,
#205000000
0(
0,
#205500000
1(
1,
#206000000
0(
0,
#206500000
1(
1,
#207000000
0(
0,
#207500000
1(
1,
#208000000
0(
0,
#208500000
1(
1,
#209000000
0(
0,
#209500000
1(
1,
#210000000
0(
0,
#210500000
1(
1,
#211000000
0(
0,
#211500000
1(
1,
#212000000
0(
0,
#212500000
1(
1,
#213000000
0(
0,
#213500000
1(
1,
#214000000
0(
0,
#214500000
1(
1,
#215000000
0(
0,
#215500000
1(
1,
#216000000
0(
0,
#216500000
1(
1,
#217000000
0(
0,
#217500000
1(
1,
#218000000
0(
0,
#218500000
1(
1,
#219000000
0(
0,
#219500000
1(
1,
#220000000
0(
0,
#220500000
1(
1,
#221000000
0(
0,
#221500000
1(
1,
#222000000
0(
0,
#222500000
1(
1,
#223000000
0(
0,
#223500000
1(
1,
#224000000
0(
0,
#224500000
1(
1,
#225000000
0(
0,
#225500000
1(
1,
#226000000
0(
0,
#226500000
1(
1,
#227000000
0(
0,
#227500000
1(
1,
#228000000
0(
0,
#228500000
1(
1,
#229000000
0(
0,
#229500000
1(
1,
#230000000
0(
0,
#230500000
1(
1,
#231000000
0(
0,
#231500000
1(
1,
#232000000
0(
0,
#232500000
1(
1,
#233000000
0(
0,
#233500000
1(
1,
#234000000
0(
0,
#234500000
1(
1,
#235000000
0(
0,
#235500000
1(
1,
#236000000
0(
0,
#236500000
1(
1,
#237000000
0(
0,
#237500000
1(
1,
#238000000
0(
0,
#238500000
1(
1,
#239000000
0(
0,
#239500000
1(
1,
#240000000
0(
0,
#240500000
1(
1,
#241000000
0(
0,
#241500000
1(
1,
#242000000
0(
0,
#242500000
1(
1,
#243000000
0(
0,
#243500000
1(
1,
#244000000
0(
0,
#244500000
1(
1,
#245000000
0(
0,
#245500000
1(
1,
#246000000
0(
0,
#246500000
1(
1,
#247000000
0(
0,
#247500000
1(
1,
#248000000
0(
0,
#248500000
1(
1,
#249000000
0(
0,
#249500000
1(
1,
#250000000
0(
0,
#250500000
1(
1,
#251000000
0(
0,
#251500000
1(
1,
#252000000
0(
0,
#252500000
1(
1,
#253000000
0(
0,
#253500000
1(
1,
#254000000
0(
0,
#254500000
1(
1,
#255000000
0(
0,
#255500000
1(
1,
#256000000
0(
0,
#256500000
1(
1,
#257000000
0(
0,
#257500000
1(
1,
#258000000
0(
0,
#258500000
1(
1,
#259000000
0(
0,
#259500000
1(
1,
#260000000
0(
0,
#260500000
1(
1,
#261000000
0(
0,
#261500000
1(
1,
#262000000
0(
0,
#262500000
1(
1,
#263000000
0(
0,
#263500000
1(
1,
#264000000
0(
0,
#264500000
1(
1,
#265000000
0(
0,
#265500000
1(
1,
#266000000
0(
0,
#266500000
1(
1,
#267000000
0(
0,
#267500000
1(
1,
#268000000
0(
0,
#268500000
1(
1,
#269000000
0(
0,
#269500000
1(
1,
#270000000
0(
0,
#270500000
1(
1,
#271000000
0(
0,
#271500000
1(
1,
#272000000
0(
0,
#272500000
1(
1,
#273000000
0(
0,
#273500000
1(
1,
#274000000
0(
0,
#274500000
1(
1,
#275000000
0(
0,
#275500000
1(
1,
#276000000
0(
0,
#276500000
1(
1,
#277000000
0(
0,
#277500000
1(
1,
#278000000
0(
0,
#278500000
1(
1,
#279000000
0(
0,
#279500000
1(
1,
#280000000
0(
0,
#280500000
1(
1,
#281000000
0(
0,
#281500000
1(
1,
#282000000
0(
0,
#282500000
1(
1,
#283000000
0(
0,
#283500000
1(
1,
#284000000
0(
0,
#284500000
1(
1,
#285000000
0(
0,
#285500000
1(
1,
#286000000
0(
0,
#286500000
1(
1,
#287000000
0(
0,
#287500000
1(
1,
#288000000
0(
0,
#288500000
1(
1,
#289000000
0(
0,
#289500000
1(
1,
#290000000
0(
0,
#290500000
1(
1,
#291000000
0(
0,
#291500000
1(
1,
#292000000
0(
0,
#292500000
1(
1,
#293000000
0(
0,
#293500000
1(
1,
#294000000
0(
0,
#294500000
1(
1,
#295000000
0(
0,
#295500000
1(
1,
#296000000
0(
0,
#296500000
1(
1,
#297000000
0(
0,
#297500000
1(
1,
#298000000
0(
0,
#298500000
1(
1,
#299000000
0(
0,
#299500000
1(
1,
#300000000
0(
0,
#300500000
1(
1,
#301000000
0(
0,
#301500000
1(
1,
#302000000
0(
0,
#302500000
1(
1,
#303000000
0(
0,
#303500000
1(
1,
#304000000
0(
0,
#304500000
1(
1,
#305000000
0(
0,
#305500000
1(
1,
#306000000
0(
0,
#306500000
1(
1,
#307000000
0(
0,
#307500000
1(
1,
#308000000
0(
0,
#308500000
1(
1,
#309000000
0(
0,
#309500000
1(
1,
#310000000
0(
0,
#310500000
1(
1,
#311000000
0(
0,
#311500000
1(
1,
#312000000
0(
0,
#312500000
1(
1,
#313000000
0(
0,
#313500000
1(
1,
#314000000
0(
0,
#314500000
1(
1,
#315000000
0(
0,
#315500000
1(
1,
#316000000
0(
0,
#316500000
1(
1,
#317000000
0(
0,
#317500000
1(
1,
#318000000
0(
0,
#318500000
1(
1,
#319000000
0(
0,
#319500000
1(
1,
#320000000
0(
0,
#320500000
1(
1,
#321000000
0(
0,
#321500000
1(
1,
#322000000
0(
0,
#322500000
1(
1,
#323000000
0(
0,
#323500000
1(
1,
#324000000
0(
0,
#324500000
1(
1,
#325000000
0(
0,
#325500000
1(
1,
#326000000
0(
0,
#326500000
1(
1,
#327000000
0(
0,
#327500000
1(
1,
#328000000
0(
0,
#328500000
1(
1,
#329000000
0(
0,
#329500000
1(
1,
#330000000
0(
0,
#330500000
1(
1,
#331000000
0(
0,
#331500000
1(
1,
#332000000
0(
0,
#332500000
1(
1,
#333000000
0(
0,
#333500000
1(
1,
#334000000
0(
0,
#334500000
1(
1,
#335000000
0(
0,
#335500000
1(
1,
#336000000
0(
0,
#336500000
1(
1,
#337000000
0(
0,
#337500000
1(
1,
#338000000
0(
0,
#338500000
1(
1,
#339000000
0(
0,
#339500000
1(
1,
#340000000
0(
0,
#340500000
1(
1,
#341000000
0(
0,
#341500000
1(
1,
#342000000
0(
0,
#342500000
1(
1,
#343000000
0(
0,
#343500000
1(
1,
#344000000
0(
0,
#344500000
1(
1,
#345000000
0(
0,
#345500000
1(
1,
#346000000
0(
0,
#346500000
1(
1,
#347000000
0(
0,
#347500000
1(
1,
#348000000
0(
0,
#348500000
1(
1,
#349000000
0(
0,
#349500000
1(
1,
#350000000
0(
0,
#350500000
1(
1,
#351000000
0(
0,
#351500000
1(
1,
#352000000
0(
0,
#352500000
1(
1,
#353000000
0(
0,
#353500000
1(
1,
#354000000
0(
0,
#354500000
1(
1,
#355000000
0(
0,
#355500000
1(
1,
#356000000
0(
0,
#356500000
1(
1,
#357000000
0(
0,
#357500000
1(
1,
#358000000
0(
0,
#358500000
1(
1,
#359000000
0(
0,
#359500000
1(
1,
#360000000
0(
0,
#360500000
1(
1,
#361000000
0(
0,
#361500000
1(
1,
#362000000
0(
0,
#362500000
1(
1,
#363000000
0(
0,
#363500000
1(
1,
#364000000
0(
0,
#364500000
1(
1,
#365000000
0(
0,
#365500000
1(
1,
#366000000
0(
0,
#366500000
1(
1,
#367000000
0(
0,
#367500000
1(
1,
#368000000
0(
0,
#368500000
1(
1,
#369000000
0(
0,
#369500000
1(
1,
#370000000
0(
0,
#370500000
1(
1,
#371000000
0(
0,
#371500000
1(
1,
#372000000
0(
0,
#372500000
1(
1,
#373000000
0(
0,
#373500000
1(
1,
#374000000
0(
0,
#374500000
1(
1,
#375000000
0(
0,
#375500000
1(
1,
#376000000
0(
0,
#376500000
1(
1,
#377000000
0(
0,
#377500000
1(
1,
#378000000
0(
0,
#378500000
1(
1,
#379000000
0(
0,
#379500000
1(
1,
#380000000
0(
0,
#380500000
1(
1,
#381000000
0(
0,
#381500000
1(
1,
#382000000
0(
0,
#382500000
1(
1,
#383000000
0(
0,
#383500000
1(
1,
#384000000
0(
0,
#384500000
1(
1,
#385000000
0(
0,
#385500000
1(
1,
#386000000
0(
0,
#386500000
1(
1,
#387000000
0(
0,
#387500000
1(
1,
#388000000
0(
0,
#388500000
1(
1,
#389000000
0(
0,
#389500000
1(
1,
#390000000
0(
0,
#390500000
1(
1,
#391000000
0(
0,
#391500000
1(
1,
#392000000
0(
0,
#392500000
1(
1,
#393000000
0(
0,
#393500000
1(
1,
#394000000
0(
0,
#394500000
1(
1,
#395000000
0(
0,
#395500000
1(
1,
#396000000
0(
0,
#396500000
1(
1,
#397000000
0(
0,
#397500000
1(
1,
#398000000
0(
0,
#398500000
1(
1,
#399000000
0(
0,
#399500000
1(
1,
#400000000
0(
0,
#400500000
1(
1,
#401000000
0(
0,
#401500000
1(
1,
#402000000
0(
0,
#402500000
1(
1,
#403000000
0(
0,
#403500000
1(
1,
#404000000
0(
0,
#404500000
1(
1,
#405000000
0(
0,
#405500000
1(
1,
#406000000
0(
0,
#406500000
1(
1,
#407000000
0(
0,
#407500000
1(
1,
#408000000
0(
0,
#408500000
1(
1,
#409000000
0(
0,
#409500000
1(
1,
#410000000
0(
0,
#410500000
1(
1,
#411000000
0(
0,
#411500000
1(
1,
#412000000
0(
0,
#412500000
1(
1,
#413000000
0(
0,
#413500000
1(
1,
#414000000
0(
0,
#414500000
1(
1,
#415000000
0(
0,
#415500000
1(
1,
#416000000
0(
0,
#416500000
1(
1,
#417000000
0(
0,
#417500000
1(
1,
#418000000
0(
0,
#418500000
1(
1,
#419000000
0(
0,
#419500000
1(
1,
#420000000
0(
0,
#420500000
1(
1,
#421000000
0(
0,
#421500000
1(
1,
#422000000
0(
0,
#422500000
1(
1,
#423000000
0(
0,
#423500000
1(
1,
#424000000
0(
0,
#424500000
1(
1,
#425000000
0(
0,
#425500000
1(
1,
#426000000
0(
0,
#426500000
1(
1,
#427000000
0(
0,
#427500000
1(
1,
#428000000
0(
0,
#428500000
1(
1,
#429000000
0(
0,
#429500000
1(
1,
#430000000
0(
0,
#430500000
1(
1,
#431000000
0(
0,
#431500000
1(
1,
#432000000
0(
0,
#432500000
1(
1,
#433000000
0(
0,
#433500000
1(
1,
#434000000
0(
0,
#434500000
1(
1,
#435000000
0(
0,
#435500000
1(
1,
#436000000
0(
0,
#436500000
1(
1,
#437000000
0(
0,
#437500000
1(
1,
#438000000
0(
0,
#438500000
1(
1,
#439000000
0(
0,
#439500000
1(
1,
#440000000
0(
0,
#440500000
1(
1,
#441000000
0(
0,
#441500000
1(
1,
#442000000
0(
0,
#442500000
1(
1,
#443000000
0(
0,
#443500000
1(
1,
#444000000
0(
0,
#444500000
1(
1,
#445000000
0(
0,
#445500000
1(
1,
#446000000
0(
0,
#446500000
1(
1,
#447000000
0(
0,
#447500000
1(
1,
#448000000
0(
0,
#448500000
1(
1,
#449000000
0(
0,
#449500000
1(
1,
#450000000
0(
0,
#450500000
1(
1,
#451000000
0(
0,
#451500000
1(
1,
#452000000
0(
0,
#452500000
1(
1,
#453000000
0(
0,
#453500000
1(
1,
#454000000
0(
0,
#454500000
1(
1,
#455000000
0(
0,
#455500000
1(
1,
#456000000
0(
0,
#456500000
1(
1,
#457000000
0(
0,
#457500000
1(
1,
#458000000
0(
0,
#458500000
1(
1,
#459000000
0(
0,
#459500000
1(
1,
#460000000
0(
0,
#460500000
1(
1,
#461000000
0(
0,
#461500000
1(
1,
#462000000
0(
0,
#462500000
1(
1,
#463000000
0(
0,
#463500000
1(
1,
#464000000
0(
0,
#464500000
1(
1,
#465000000
0(
0,
#465500000
1(
1,
#466000000
0(
0,
#466500000
1(
1,
#467000000
0(
0,
#467500000
1(
1,
#468000000
0(
0,
#468500000
1(
1,
#469000000
0(
0,
#469500000
1(
1,
#470000000
0(
0,
#470500000
1(
1,
#471000000
0(
0,
#471500000
1(
1,
#472000000
0(
0,
#472500000
1(
1,
#473000000
0(
0,
#473500000
1(
1,
#474000000
0(
0,
#474500000
1(
1,
#475000000
0(
0,
#475500000
1(
1,
#476000000
0(
0,
#476500000
1(
1,
#477000000
0(
0,
#477500000
1(
1,
#478000000
0(
0,
#478500000
1(
1,
#479000000
0(
0,
#479500000
1(
1,
#480000000
0(
0,
#480500000
1(
1,
#481000000
0(
0,
#481500000
1(
1,
#482000000
0(
0,
#482500000
1(
1,
#483000000
0(
0,
#483500000
1(
1,
#484000000
0(
0,
#484500000
1(
1,
#485000000
0(
0,
#485500000
1(
1,
#486000000
0(
0,
#486500000
1(
1,
#487000000
0(
0,
#487500000
1(
1,
#488000000
0(
0,
#488500000
1(
1,
#489000000
0(
0,
#489500000
1(
1,
#490000000
0(
0,
#490500000
1(
1,
#491000000
0(
0,
#491500000
1(
1,
#492000000
0(
0,
#492500000
1(
1,
#493000000
0(
0,
#493500000
1(
1,
#494000000
0(
0,
#494500000
1(
1,
#495000000
0(
0,
#495500000
1(
1,
#496000000
0(
0,
#496500000
1(
1,
#497000000
0(
0,
#497500000
1(
1,
#498000000
0(
0,
#498500000
1(
1,
#499000000
0(
0,
#499500000
1(
1,
#500000000
0(
0,
#500500000
1(
1,
#501000000
0(
0,
#501500000
1(
1,
#502000000
0(
0,
#502500000
1(
1,
#503000000
0(
0,
#503500000
1(
1,
#504000000
0(
0,
#504500000
1(
1,
#505000000
0(
0,
#505500000
1(
1,
#506000000
0(
0,
#506500000
1(
1,
#507000000
0(
0,
#507500000
1(
1,
#508000000
0(
0,
#508500000
1(
1,
#509000000
0(
0,
#509500000
1(
1,
#510000000
0(
0,
#510500000
1(
1,
#511000000
0(
0,
#511500000
1(
1,
#512000000
0(
0,
#512500000
1(
1,
#513000000
0(
0,
#513500000
1(
1,
#514000000
0(
0,
#514500000
1(
1,
#515000000
0(
0,
#515500000
1(
1,
#516000000
0(
0,
#516500000
1(
1,
#517000000
0(
0,
#517500000
1(
1,
#518000000
0(
0,
#518500000
1(
1,
#519000000
0(
0,
#519500000
1(
1,
#520000000
0(
0,
#520500000
1(
1,
#521000000
0(
0,
#521500000
1(
1,
#522000000
0(
0,
#522500000
1(
1,
#523000000
0(
0,
#523500000
1(
1,
#524000000
0(
0,
#524500000
1(
1,
#525000000
0(
0,
#525500000
1(
1,
#526000000
0(
0,
#526500000
1(
1,
#527000000
0(
0,
#527500000
1(
1,
#528000000
0(
0,
#528500000
1(
1,
#529000000
0(
0,
#529500000
1(
1,
#530000000
0(
0,
#530500000
1(
1,
#531000000
0(
0,
#531500000
1(
1,
#532000000
0(
0,
#532500000
1(
1,
#533000000
0(
0,
#533500000
1(
1,
#534000000
0(
0,
#534500000
1(
1,
#535000000
0(
0,
#535500000
1(
1,
#536000000
0(
0,
#536500000
1(
1,
#537000000
0(
0,
#537500000
1(
1,
#538000000
0(
0,
#538500000
1(
1,
#539000000
0(
0,
#539500000
1(
1,
#540000000
0(
0,
#540500000
1(
1,
#541000000
0(
0,
#541500000
1(
1,
#542000000
0(
0,
#542500000
1(
1,
#543000000
0(
0,
#543500000
1(
1,
#544000000
0(
0,
#544500000
1(
1,
#545000000
0(
0,
#545500000
1(
1,
#546000000
0(
0,
#546500000
1(
1,
#547000000
0(
0,
#547500000
1(
1,
#548000000
0(
0,
#548500000
1(
1,
#549000000
0(
0,
#549500000
1(
1,
#550000000
0(
0,
#550500000
1(
1,
#551000000
0(
0,
#551500000
1(
1,
#552000000
0(
0,
#552500000
1(
1,
#553000000
0(
0,
#553500000
1(
1,
#554000000
0(
0,
#554500000
1(
1,
#555000000
0(
0,
#555500000
1(
1,
#556000000
0(
0,
#556500000
1(
1,
#557000000
0(
0,
#557500000
1(
1,
#558000000
0(
0,
#558500000
1(
1,
#559000000
0(
0,
#559500000
1(
1,
#560000000
0(
0,
#560500000
1(
1,
#561000000
0(
0,
#561500000
1(
1,
#562000000
0(
0,
#562500000
1(
1,
#563000000
0(
0,
#563500000
1(
1,
#564000000
0(
0,
#564500000
1(
1,
#565000000
0(
0,
#565500000
1(
1,
#566000000
0(
0,
#566500000
1(
1,
#567000000
0(
0,
#567500000
1(
1,
#568000000
0(
0,
#568500000
1(
1,
#569000000
0(
0,
#569500000
1(
1,
#570000000
0(
0,
#570500000
1(
1,
#571000000
0(
0,
#571500000
1(
1,
#572000000
0(
0,
#572500000
1(
1,
#573000000
0(
0,
#573500000
1(
1,
#574000000
0(
0,
#574500000
1(
1,
#575000000
0(
0,
#575500000
1(
1,
#576000000
0(
0,
#576500000
1(
1,
#577000000
0(
0,
#577500000
1(
1,
#578000000
0(
0,
#578500000
1(
1,
#579000000
0(
0,
#579500000
1(
1,
#580000000
0(
0,
#580500000
1(
1,
#581000000
0(
0,
#581500000
1(
1,
#582000000
0(
0,
#582500000
1(
1,
#583000000
0(
0,
#583500000
1(
1,
#584000000
0(
0,
#584500000
1(
1,
#585000000
0(
0,
#585500000
1(
1,
#586000000
0(
0,
#586500000
1(
1,
#587000000
0(
0,
#587500000
1(
1,
#588000000
0(
0,
#588500000
1(
1,
#589000000
0(
0,
#589500000
1(
1,
#590000000
0(
0,
#590500000
1(
1,
#591000000
0(
0,
#591500000
1(
1,
#592000000
0(
0,
#592500000
1(
1,
#593000000
0(
0,
#593500000
1(
1,
#594000000
0(
0,
#594500000
1(
1,
#595000000
0(
0,
#595500000
1(
1,
#596000000
0(
0,
#596500000
1(
1,
#597000000
0(
0,
#597500000
1(
1,
#598000000
0(
0,
#598500000
1(
1,
#599000000
0(
0,
#599500000
1(
1,
#600000000
0(
0,
#600500000
1(
1,
#601000000
0(
0,
#601500000
1(
1,
#602000000
0(
0,
#602500000
1(
1,
#603000000
0(
0,
#603500000
1(
1,
#604000000
0(
0,
#604500000
1(
1,
#605000000
0(
0,
#605500000
1(
1,
#606000000
0(
0,
#606500000
1(
1,
#607000000
0(
0,
#607500000
1(
1,
#608000000
0(
0,
#608500000
1(
1,
#609000000
0(
0,
#609500000
1(
1,
#610000000
0(
0,
#610500000
1(
1,
#611000000
0(
0,
#611500000
1(
1,
#612000000
0(
0,
#612500000
1(
1,
#613000000
0(
0,
#613500000
1(
1,
#614000000
0(
0,
#614500000
1(
1,
#615000000
0(
0,
#615500000
1(
1,
#616000000
0(
0,
#616500000
1(
1,
#617000000
0(
0,
#617500000
1(
1,
#618000000
0(
0,
#618500000
1(
1,
#619000000
0(
0,
#619500000
1(
1,
#620000000
0(
0,
#620500000
1(
1,
#621000000
0(
0,
#621500000
1(
1,
#622000000
0(
0,
#622500000
1(
1,
#623000000
0(
0,
#623500000
1(
1,
#624000000
0(
0,
#624500000
1(
1,
#625000000
0(
0,
#625500000
1(
1,
#626000000
0(
0,
#626500000
1(
1,
#627000000
0(
0,
#627500000
1(
1,
